module docs-quickstart

go 1.16

require (
	github.com/gofiber/fiber/v2 v2.7.1 // indirect
	github.com/klauspost/compress v1.11.13 // indirect
	github.com/valyala/fasthttp v1.23.0 // indirect
	github.com/valyala/tcplisten v1.0.0 // indirect
	golang.org/x/sys v0.0.0-20210403161142-5e06dd20ab57 // indirect
)
